[
	{
		"id": "user1",
		"username": "alpha1",
		"firstName": "Adam",
		"lastName": "Warlock",
		"email": "adamwarlock@gmail.com",
		"password": "adam1234",
		"mobileNumber": 09123456789,
		"isAdmin": false,
		"enrollments": [
			{
				"id": "unique1",
				"courseId": "course1",
				"courseName": "Magic",
				"isPaid": true,
				"dateEnrolled": "12/12/2021"
			}
		]
	},
	{
		"id": "user2",
		"username": "bravo2",
		"firstName": "Ben",
		"lastName": "Parker",
		"email": "benparker@gmail.com",
		"password": "benandben123",
		"mobileNumber": 09123456790,
		"isAdmin": false,
		"enrollments": [
			{
				"id": "unique2",
				"courseId": "course2",
				"courseName": "Health",
				"isPaid": true,
				"dateEnrolled": "01/30/2020"
			}
		]
	}
]